<?xml version="1.0" standalone="no"?>
<!DOCTYPE svg PUBLIC "-//W3C//DTD SVG 20010904//EN"
 "http://www.w3.org/TR/2001/REC-SVG-20010904/DTD/svg10.dtd">
<svg version="1.0" xmlns="http://www.w3.org/2000/svg"
 width="1264.000000pt" height="1280.000000pt" viewBox="0 0 1264.000000 1280.000000"
 preserveAspectRatio="xMidYMid meet">
<metadata>
Created by potrace 1.15, written by Peter Selinger 2001-2017
</metadata>
<g transform="translate(0.000000,1280.000000) scale(0.100000,-0.100000)"
fill="#000000" stroke="none">
<path d="M5975 12229 c-1130 -76 -2150 -449 -3055 -1117 -96 -71 -240 -185
-286 -227 -6 -5 -36 -30 -65 -55 -123 -103 -341 -320 -544 -540 -117 -127
-358 -442 -489 -639 -518 -780 -839 -1672 -940 -2616 -148 -1371 185 -2749
940 -3886 131 -197 372 -512 489 -639 203 -220 421 -437 544 -540 29 -25 59
-50 65 -55 46 -42 190 -156 286 -227 313 -231 563 -383 915 -554 557 -272
1132 -444 1742 -524 964 -126 1947 -4 2842 352 290 115 644 294 906 456 222
138 544 373 681 497 6 5 36 30 65 55 123 103 341 320 544 540 117 127 358 442
489 639 755 1137 1088 2515 940 3886 -101 944 -422 1836 -940 2616 -131 197
-372 512 -489 639 -203 220 -421 437 -544 540 -29 25 -59 50 -65 55 -46 42
-190 156 -286 227 -313 231 -563 383 -915 554 -484 236 -943 385 -1502 488
-377 70 -937 101 -1328 75z"/>
</g>
</svg>
